{
	"frames": {
		"dirt.png": {
			"frame": {
				"x": 1,
				"y": 1,
				"w": 8,
				"h": 8
			},
			"rotated": false,
			"trimmed": false,
			"spriteSourceSize": {
				"x": 0,
				"y": 0,
				"w": 8,
				"h": 8
			},
			"sourceSize": {
				"w": 8,
				"h": 8
			}
		},
		"grass.png": {
			"frame": {
				"x": 11,
				"y": 1,
				"w": 8,
				"h": 8
			},
			"rotated": false,
			"trimmed": false,
			"spriteSourceSize": {
				"x": 0,
				"y": 0,
				"w": 8,
				"h": 8
			},
			"sourceSize": {
				"w": 8,
				"h": 8
			}
		},
		"player.png": {
			"frame": {
				"x": 21,
				"y": 1,
				"w": 8,
				"h": 16
			},
			"rotated": false,
			"trimmed": false,
			"spriteSourceSize": {
				"x": 0,
				"y": 0,
				"w": 8,
				"h": 16
			},
			"sourceSize": {
				"w": 8,
				"h": 16
			}
		}
	},
	"meta": {
		"app": "http://www.codeandweb.com/texturepacker",
		"version": "1.0",
		"image": "spritesheet.png",
		"format": "RGBA8888",
		"size": {
			"w": 30,
			"h": 18
		},
		"scale": "1"
	}
}